Team Name,Team Number,Weight,Load,Category
Kayleigh Harris,107,35.33,167.56,12
Corey Ortiz,11,77.47,185.85,12
Raelynn Singleton,178,83.15,277.06,24
Skyla Sheppard,191,58.09,61.04,24
Brycen Sanford,63,113.7,79.92,18
Malaysia Stanton,46,146.62,299.05,18
Kobe Chandler,15,253.37,58.96,24
Byron Velasquez,30,41.04,30.63,12
Dennis Glenn,46,74.33,120.28,18
Maliyah Mcfarland,42,34.19,193.57,12
Mathias Lang,58,246.6,31.74,12
Colby Todd,59,165.37,80.65,12
Edison Stevenson,112,119.02,97.09,18
Walker Hobbs,111,115.16,185.11,18
Dominique Blankenship,132,20.55,137.64,18
Kayden Levy,79,219.38,208.35,24
Marlee Larson,199,118.04,185.02,18
Daniela Shannon,188,149.78,24.33,12
Colten Zamora,84,227.04,28.79,24
Destiny Ferrell,40,241.65,28.48,24
Adyson Alford,184,70.09,112,12
Kaia Conley,23,113.31,296.96,18
Mathew Olson,144,20.7,26.43,12
Miles Lancaster,137,138.34,263.52,12
Brian Clarke,126,242.02,286.77,24
Milania Tanner,170,289.05,157.36,24
Oscar Rowland,161,26.17,169.46,18
Ember Conner,112,209.06,205.18,24
Colt Barry,23,74.1,227.86,12
Brynlee Pena,31,163.31,114.38,12
Ali Fletcher,89,15.98,289.81,24
Troy Blevins,131,126.4,192.75,24
Brice Mccarthy,180,229.09,167.78,24
Hassan Shaffer,189,83.95,101.66,12
Rylan Morris,187,63.54,64.43,18
Adrien Duke,142,76.94,246.29,18
Matthias Buchanan,132,56.03,178.44,12
Jocelyn Harrell,84,146.39,246.31,12
Bridget Francis,103,88.56,96.38,12
Brielle Wiley,49,13.84,275.05,12
Kayden Gallagher,74,212.01,226.55,24
Connor Rush,162,123.52,222.96,24
Kayden Kerr,46,34.13,219.73,24
Porter Whitney,131,293.77,104.4,18
Larissa Sanford,11,247.76,289.99,24
Dominick Ayers,79,268.37,112.28,18
Rhys Cherry,127,87.87,285.89,18
Delaney Lowe,8,83.34,246.48,12
Alexandra Moody,162,175.38,28.92,12
Lainey Burks,167,281.25,245.85,24
Kenny Larson,159,141.49,61,24
Jairo Pittman,95,142.76,62.76,12
Alicia Stein,18,29.02,187.69,24
Jayleen Barnes,100,184.96,201.52,12
Edgar Gomez,98,75.9,156.99,12
Shelby Curry,3,136.82,188.95,12
Douglas Salazar,194,201.86,146.19,18
Macie Bruce,117,254.81,86.14,12
Leila Moses,146,211.45,191.03,12
Jessie Short,92,126.09,215.31,18
Carleigh Wolfe,197,195.11,31.76,24
River England,86,122.15,64.79,18
Jett Durham,188,175.43,10.82,18
Cecelia Curtis,97,13.29,87.81,12
Brayan Stephenson,22,157.58,215.34,12
Olivia Parrish,93,143.13,258.39,24
Nyla Townsend,68,21.22,35.65,18
Mae Barton,198,72.76,138.19,12
Trace Glass,101,96.3,77.99,24
Terry Underwood,71,76.31,13.87,18
Jovanni Rosa,14,256.39,25.46,12
Aaliyah Hester,178,252.97,233.44,18
Phoenix Mills,139,121.86,36.31,24
Michelle Fields,8,45.9,263.65,12
Lila Flores,198,119.11,12.96,12
Kenzie Sweet,3,75.07,57.65,12
Marcel Kirby,178,234.04,158.02,24
Molly Conley,84,139.28,293.79,24
Maxx Carson,37,185.11,246.11,18
Anabel Roman,81,152.4,291.81,12
Aron Osborn,61,256.15,81.33,18
Frankie Thompson,193,280.46,32.39,18
Jacob Richmond,46,89.65,250.81,18
Cory Norman,65,48.79,179.48,24
Melody Carrillo,174,18.94,94.04,24
Elianna Diaz,7,63.31,192.72,18
Kendyl Le,161,201.63,96.22,12
Fiona Johnston,56,25.83,88.95,18
Grayson Munoz,198,257.27,111.36,24
Kody Pace,169,41.03,217.61,24
Maxwell Randall,74,209.34,57.66,12
Krystal Dunlap,127,91.83,64.79,12
Derick Langley,54,115.49,33.14,12
Felipe Koch,28,240.85,134.57,12
Nayeli Boyd,78,120.04,164.31,18
Kylah Townsend,111,277.59,224.38,24
Marcus Buckley,50,279.83,104.58,24
Samiya Albert,31,155.34,33.18,18
Samson Mason,168,257.8,31.77,18
Quentin Drake,193,46.73,227.33,18
Lilly Galloway,195,238.51,266.21,12
Carter George,73,184.3,229.26,24
Asia Terrell,76,106.78,31.71,12
Alia Noel,82,40.75,48.46,24
Maxton Waller,56,283.04,161.95,24
Arianna Rosales,163,223.69,32.32,18
Hadley Daugherty,39,269.47,283.65,24
Terrence Franks,97,151.59,297.15,18
Eduardo Pugh,183,86.41,96.4,24
Isabelle Wilcox,135,160.56,65.75,24
Gerardo Chavez,78,281.96,116.06,18
Darryl Cantu,117,166.76,108.75,18
Camron Bowman,10,266.61,114.83,24
Ronald Delacruz,155,145.32,111.36,18
Madison Foreman,146,180.84,136.87,24
Dane Warren,154,24.8,275.85,12
Journee Aguirre,79,76.15,252.2,18
Quinton Barnett,41,35.5,182.69,12
Hugh Mccarthy,7,158.75,135.63,12
Johnathan White,28,271.34,220.23,12
Marisa Kirby,94,91.06,139.69,24
Tatiana Stout,54,87.2,133.61,12
Mckinley Wolf,175,258.17,32.21,24
Rylan English,86,188.28,98.12,12
Brianna Golden,35,285.04,289.99,24
Patience Harmon,186,113.36,141.79,12
Linda Oneil,186,95.64,139.54,12
Julian Martin,17,131.47,264.56,18
Karis Ramos,121,187.2,204.87,24
Payton Andrews,72,200.21,128.46,18
London Wilcox,45,130.69,270.08,18
Presley Carey,48,184.42,254.8,12
Ariel Chen,160,64.18,121.27,24
Kaiya Beck,187,55.9,18.95,24
Joyce York,164,266.88,188.67,12
Shawn Holcomb,139,68.44,93.15,24
Bridger Pena,103,109.89,234.45,24
Westin Garcia,24,227.67,210.69,12
Adelynn Newman,4,54.33,216.29,18
Jamarion Mcneil,124,101.63,142.43,12
Brayan Weaver,62,208.8,299.4,24
Albert Navarro,57,86.6,237.95,12
Sloan Middleton,116,195.79,282.51,18
Brynn Yates,155,172.18,129.36,12
Darrell Snyder,168,11.06,264.13,18
Fletcher Wiley,89,21.31,74.97,18
Eric Cunningham,118,200.99,146.14,18
Jolene Chambers,10,143.52,84.14,24
Esperanza Turner,19,290.23,50.91,18
Hector Bowman,58,274.61,181.97,12
Karly Hanson,122,156.13,96.77,12
Nola Buckner,153,251.56,204.46,12
Isabela Gallagher,98,247,154.23,12
Zain Thompson,167,239.54,240.51,12
Markus Nunez,132,148.27,71.84,24
Leigha Quinn,52,126.73,207.1,24
Leonard Key,1,284.69,156.41,18
Samiya Carr,81,73.66,77.73,18
Aden Osborne,71,236.51,126.81,24
Valeria Castillo,143,75.95,252.66,24
Dana Pickett,13,134.86,164.73,12
Kaia Buchanan,19,183.2,260.99,18
Brodie Garza,178,164.71,48.2,12
Boston Donovan,131,212.37,91.29,24
Briella Dotson,105,263.84,96.02,18
Marcel Hahn,36,290.82,207.35,18
Julie Johns,34,112.72,31.91,12
Sarahi Vaughan,140,52.84,110.05,24
Bryson Ryan,126,63.49,217.42,12
Bryanna Murphy,188,163.6,134.58,18
Camden Hardy,19,85.6,71.72,24
Brynlee Tucker,159,116.11,204.84,24
Bree Gallagher,199,32.07,44.46,18
Nathaniel Pruitt,49,90.12,202.89,12
Leona Lee,131,253.17,125.34,18
Camille York,83,166.62,12.45,18
Shawn Alford,145,143.46,20.06,18
Parker Rich,74,138.01,129.28,12
Bentley Keith,152,274.18,297.92,12
Catherine Morin,189,131.9,50.71,18
Jadiel Wolf,125,15.57,30.61,12
Kamren Goodwin,152,196.13,18.61,24
Rachael Campos,70,62.3,65.3,18
Leilani Boyer,32,223.5,197.27,24
Raphael Rush,6,181.36,197.68,12
Kason Cote,52,267.51,38.33,18
Ralph Macdonald,18,173.5,272.06,18
Devin Greene,116,54.33,129.93,24
Marina Cook,58,68.11,176.67,18
Liberty Kelly,20,262.34,115.9,12
Riya Griffin,79,66.91,111.58,24
Camren Campos,144,97.54,44.24,18
Athena Sandoval,110,253.4,225.85,18
Eugene Mann,172,62.19,40.9,12
Hayleigh Blake,43,103.63,218.12,18
Dana Dillon,121,204.58,36.13,18
Brooklyn Maynard,61,108.62,131.97,24
Ronan Fisher,131,119.49,135.91,12
Aubree Rosario,55,170.66,163.18,24
Bianca Sheppard,115,122.81,90.18,12
